<?xml version="1.0" encoding="utf-8"?>
<!-- Generator: Adobe Illustrator 16.0.4, SVG Export Plug-In . SVG Version: 6.00 Build 0)  -->
<!DOCTYPE svg PUBLIC "-//W3C//DTD SVG 1.1//EN" "http://www.w3.org/Graphics/SVG/1.1/DTD/svg11.dtd">
<svg version="1.1" id="nlm-nih-logo" aria-label="NLM Logo (and link to home page)" xmlns="http://www.w3.org/2000/svg" xmlns:xlink="http://www.w3.org/1999/xlink" x="0px" y="0px"
	 width="150px" height="50px" viewBox="0 0 150 50" style="enable-nlm-nih-logo-background:new 0 0 150 50;" xml:space="preserve">

  <title>NLM Logo</title>
  <desc>The logo for the National Library of Medicine</desc>
<style type="text/css">
<![CDATA[
	.nlm-nih-logo-background{fill:none;}
	@media screen{.nlm-nih-logo-shape, .nlm-nih-logo-text{fill:#fff}}
	@media print {.nlm-nih-logo-shape, .nlm-nih-logo-text{fill:#000}}
]]>
</style>
<a xlink:href="http://www.nlm.nih.gov/" xlink:title="National Library of Medicine Home Page" xlink:show="replace" target="_top">
<path class="nlm-nih-logo-background" d="M149.7,35.8c0,4.3,0,9.3,0,13.6c-29,0-58,0-86.4,0c2.5-0.6,4.3-2.5,5.6-4.9c1.9-3.1,3.7-6.2,4.9-9.3
	c1.9-3.7,4.3-7.4,6.2-11.1c-3.7-6.8-7.4-13.6-11.1-20.4c-1.2-2.5-3.1-3.7-5.6-4.3c29,0,58,0,86.4,0c0,4.3,0,9.3,0,13.6
	c-1.9,0-3.7,0-5.6,0c-1.9,5.6-3.7,11.7-6.2,17.3c-1.9-6.2-4.3-11.7-6.2-17.3c-1.9,0-3.7,0-5.6,0c0,7.4,0,14.8,0,22.2
	c1.2,0,2.5,0,3.7,0c0-5.6,0-11.1,0-16l0,0c1.9,5.6,3.7,11.1,6.2,16c1.2,0,2.5,0,3.1,0c1.9-5.6,4.3-11.1,6.2-16.7l0,0
	c0,5.6,0,11.1,0,16.7C147.2,35.8,148.5,35.8,149.7,35.8z M100.3,30.2c-3.7-5.6-6.8-11.1-10.5-16c-1.2,0-3.1,0-4.3,0
	c0,7.4,0,14.8,0,22.2c1.2,0,2.5,0,3.7,0c0-5.6,0-10.5,0-16c3.7,5.6,6.8,11.1,10.5,16c1.2,0,2.5,0,4.3,0c0-7.4,0-14.8,0-22.2
	c-1.2,0-2.5,0-3.7,0C100.3,19.1,100.3,24.7,100.3,30.2z M123.8,35.8c0-1.2,0-2.5,0-3.1c-3.7,0-7.4,0-11.1,0c0-6.2,0-12.3,0-19.1
	c-1.2,0-2.5,0-3.7,0c0,7.4,0,14.8,0,22.2C113.3,35.8,118.8,35.8,123.8,35.8z"/>
<path class="nlm-nih-logo-shape" d="M55.9,50c-17.3,0-34,0-51.2,0H4c-1.9-0.6-3.1-1.9-3.7-3.7v-0.6c0-14.2,0-27.8,0-42V3.1C0.9,1.9,2.2,0.6,3.4,0H4
	c17.3,0,34.6,0,51.9,0c4.3,8,9.3,16.7,13.6,24.7C65.1,33.3,60.2,41.4,55.9,50z M25.6,35.8c0-7.4,0-14.8,0-22.2c-1.2,0-2.5,0-3.7,0
	c0,5.6,0,10.5,0,16.7c-3.1-5.6-6.8-11.1-9.9-16c-1.2,0-2.5,0-3.7,0c0,7.4,0,14.8,0,22.2c1.2,0,2.5,0,3.7,0c0-5.6,0-10.5,0-16.7
	c3.1,5.6,6.8,11.1,9.9,16C23.1,35.8,24.4,35.8,25.6,35.8z M52.2,25.9c0,3.1,0,6.8,0,9.9c1.2,0,2.5,0,3.7,0c0-7.4,0-14.8,0-22.2
	c-1.2,0-2.5,0-3.7,0c0,3.1,0,5.6,0,8.6c-3.7,0-6.8,0-10.5,0c0-3.1,0-5.6,0-8.6c-1.2,0-2.5,0-3.7,0c0,7.4,0,14.8,0,22.2
	c1.2,0,2.5,0,3.7,0c0-3.1,0-6.8,0-9.9C45.4,25.9,48.5,25.9,52.2,25.9z M29.9,13.6c0,7.4,0,14.8,0,22.2c1.2,0,2.5,0,3.7,0
	c0-7.4,0-14.8,0-22.2C32.4,13.6,31.2,13.6,29.9,13.6z"/>
<path class="nlm-nih-logo-shape" d="M63.3,0c2.5,0.6,4.3,2.5,5.6,4.3c3.7,6.8,7.4,13.6,11.1,20.4c-1.9,3.7-3.7,7.4-6.2,11.1
	c-1.9,3.1-3.7,6.2-4.9,9.3c-1.2,2.5-3.1,4.3-5.6,4.9c-1.2,0-2.5,0-3.7,0c1.2-2.5,3.1-5.6,4.3-8c3.1-5.6,6.2-11.1,9.3-16.7
	c-3.1-5.6-6.2-11.1-9.3-16.7C62,5.6,60.8,2.5,59,0C60.8,0,62,0,63.3,0z"/>
<path class="nlm-nih-logo-text" d="M149.7,36.4c-1.2,0-2.5,0-3.7,0c0-5.6,0-11.1,0-16.7l0,0c-1.9,5.6-4.3,11.1-6.2,16.7c-1.2,0-2.5,0-3.1,0
	c-1.9-5.6-3.7-11.1-6.2-16l0,0c0,5.6,0,11.1,0,16c-1.2,0-2.5,0-3.7,0c0-7.4,0-14.8,0-22.2c1.9,0,3.7,0,5.6,0
	c1.9,5.6,4.3,11.7,6.2,17.3c1.9-6.2,4.3-11.7,6.2-17.3c1.9,0,3.7,0,5.6,0C149.7,21.6,149.7,29,149.7,36.4z"/>
<path class="nlm-nih-logo-background" d="M59,0c1.2,2.5,3.1,5.6,4.3,8c3.1,5.6,6.2,11.1,9.3,16.7c-3.1,5.6-6.2,11.1-9.3,16.7C62,44.4,60.8,46.9,59,50
	c-1.2,0-2.5,0-3.7,0c4.3-8,9.3-16.7,13.6-24.7C65.1,16.7,60.2,8,55.9,0C57.1,0,58.3,0,59,0z"/>
<path class="nlm-nih-logo-background" d="M3.4,0C2.2,0.6,0.9,1.9,0.3,3.1l0,0c0-0.6,0-1.9,0-3.1C1.5,0,2.8,0,3.4,0L3.4,0z"/>
<path class="nlm-nih-logo-background" d="M0.3,46.3c0.6,1.9,1.9,3.1,3.1,3.1l0,0l0,0c-1.2,0-2.5,0-3.1,0C0.3,48.8,0.3,47.5,0.3,46.3L0.3,46.3z"/>
<path class="nlm-nih-logo-text" d="M0.3,3.1L0.3,3.1L0.3,3.1C0.3,3.7,0.3,3.7,0.3,3.1z"/>
<path class="nlm-nih-logo-text" d="M3.4,0L3.4,0H4C4,0,4,0,3.4,0z"/>
<path class="nlm-nih-logo-text" d="M0.3,46.3L0.3,46.3v-0.6C0.3,46.3,0.3,46.3,0.3,46.3z"/>
<path class="nlm-nih-logo-text" d="M3.4,50L3.4,50C3.4,49.4,3.4,49.4,3.4,50H4C4,50,4,50,3.4,50z"/>
<path class="nlm-nih-logo-text" d="M100.3,30.2c0-5.6,0-11.1,0-16c1.2,0,2.5,0,3.7,0c0,7.4,0,14.8,0,22.2c-1.2,0-2.5,0-4.3,0
	c-3.1-5.6-6.8-10.5-10.5-16c0,5.6,0,11.1,0,16c-1.2,0-2.5,0-3.7,0c0-7.4,0-14.8,0-22.2c1.2,0,2.5,0,4.3,0
	C93.5,19.1,96.6,24.7,100.3,30.2z"/>
<path class="nlm-nih-logo-text" d="M123.8,36.4c-4.9,0-10.5,0-15.4,0c0-7.4,0-14.8,0-22.2c1.2,0,2.5,0,3.7,0c0,6.2,0,12.3,0,19.1c3.7,0,8,0,11.7,0
	C123.8,35.8,123.8,35.8,123.8,36.4z"/>
<path class="nlm-nih-logo-background" d="M25.6,35.8c-1.2,0-2.5,0-3.7,0c-3.1-4.9-6.8-10.5-10.5-16c0,5.6,0,11.1,0,16.7c-1.2,0-2.5,0-3.7,0
	c0-7.4,0-14.8,0-22.2c1.2,0,2.5,0,3.7,0c3.7,4.9,7.4,10.5,11.1,16c0-5.6,0-11.1,0-16.7c1.2,0,2.5,0,3.7,0
	C25.6,21,25.6,28.4,25.6,35.8z"/>
<path class="nlm-nih-logo-background" d="M52.2,25.9c-3.7,0-6.8,0-10.5,0c0,3.1,0,6.8,0,9.9c-1.2,0-2.5,0-3.7,0c0-7.4,0-14.8,0-22.2c1.2,0,2.5,0,3.7,0
	c0,3.1,0,5.6,0,8.6c3.7,0,6.8,0,10.5,0c0-3.1,0-5.6,0-8.6c1.2,0,2.5,0,3.7,0c0,7.4,0,14.8,0,22.2c-1.2,0-2.5,0-3.7,0
	C52.2,32.7,52.2,29.6,52.2,25.9z"/>
<path class="nlm-nih-logo-background" d="M29.9,13.6c1.2,0,2.5,0,3.7,0c0,7.4,0,14.8,0,22.2c-1.2,0-2.5,0-3.7,0C29.9,28.4,29.9,21.6,29.9,13.6z"/>
</a>
</svg>
